{
  "project_info": {
    "project_number": "718195477065",
    "firebase_url": "https://lomi-books-170608.firebaseio.com",
    "project_id": "lomi-books-170608",
    "storage_bucket": "lomi-books-170608.appspot.com"
  },
  "client": [
    {
      "client_info": {
        "mobilesdk_app_id": "1:718195477065:android:bcf9580b9beab2e0",
        "android_client_info": {
          "package_name": "com.a360ground.lomibook"
        }
      },
      "oauth_client": [
        {
          "client_id": "718195477065-6mqcih7darabs0hal8je31gfomu5dv3u.apps.googleusercontent.com",
          "client_type": 1,
          "android_info": {
            "package_name": "com.a360ground.lomibook",
            "certificate_hash": "ec65f3ba8b75d447b6dcf5c20153160caa76459e"
          }
        },
        {
          "client_id": "718195477065-8n0t9s274pgp4ip141j23plog7k7hk3f.apps.googleusercontent.com",
          "client_type": 1,
          "android_info": {
            "package_name": "com.a360ground.lomibook",
            "certificate_hash": "7bd3c78434224cdcd53363baa465a1e90942014d"
          }
        },
        {
          "client_id": "718195477065-3q1dhb4vvn9v2d8urvh0u1ca7pc4er3m.apps.googleusercontent.com",
          "client_type": 3
        }
      ],
      "api_key": [
        {
          "current_key": "AIzaSyDPP0tG8qAoYXJ-tabU3Zzqcs4Wfvjqm4Q"
        }
      ],
      "services": {
        "analytics_service": {
          "status": 1
        },
        "appinvite_service": {
          "status": 2,
          "other_platform_oauth_client": [
            {
              "client_id": "718195477065-3q1dhb4vvn9v2d8urvh0u1ca7pc4er3m.apps.googleusercontent.com",
              "client_type": 3
            }
          ]
        },
        "ads_service": {
          "status": 2
        }
      }
    }
  ],
  "configuration_version": "1"
}